Assignment 3
…
# Remove stop words
data("stop_words")
token_counts_cleaned <- tokenized_data |>
  anti_join(stop_words, by = "word") |>
  count(term, word, sort = TRUE)

# Top 5 words after removing stop words
top_tokens_cleaned <- token_counts_cleaned |>
  group_by(term) |>
  top_n(5, n) |>
  arrange(term, desc(n))
print(top_tokens_cleaned)

# A tibble: 25 × 3
# Groups:   term [5]
   term            word         n
   <chr>           <chr>    <int>
 1 covid           covid     7275
 2 covid           19        7035
 3 covid           patients  2293
 4 covid           disease    943
 5 covid           pandemic   800
 6 cystic fibrosis fibrosis   867
 7 cystic fibrosis cystic     862
 8 cystic fibrosis cf         625
 9 cystic fibrosis patients   586
10 cystic fibrosis disease    400
# ℹ 15 more rows
…
Calculate the TF-IDF value for each word-search term combination (here you want the search term to be the “document”). What are the 5 tokens from each search term with the highest TF-IDF value? How are the results different from the answers you got in question 1?

# Calculate TF-IDF
tf_idf_data <- tokenized_data|>
  count(term, word) |>
  bind_tf_idf(word, term, n)

# Get top 5 tokens by TF-IDF for each search term
top_tf_idf <- tf_idf_data |>
  group_by(term) |>
  top_n(5, wt = tf_idf) |>
  arrange(term, desc(tf_idf))
print(top_tf_idf)

# A tibble: 25 × 6
# Groups:   term [5]
   term            word            n      tf   idf  tf_idf
   <chr>           <chr>       <int>   <dbl> <dbl>   <dbl>
 1 covid           covid        7275 0.0371  1.61  0.0597 
 2 covid           pandemic      800 0.00408 1.61  0.00657
 3 covid           coronavirus   647 0.00330 1.61  0.00531
 4 covid           sars          372 0.00190 1.61  0.00305
 5 covid           cov           334 0.00170 1.61  0.00274
 6 cystic fibrosis cf            625 0.0127  0.916 0.0117 
 7 cystic fibrosis fibrosis      867 0.0176  0.511 0.00901
 8 cystic fibrosis cystic        862 0.0175  0.511 0.00896
 9 cystic fibrosis cftr           86 0.00175 1.61  0.00282
10 cystic fibrosis sweat          83 0.00169 1.61  0.00272
# ℹ 15 more rows
…
